<?xml version="1.0" encoding="UTF-8"?>
<!DOCTYPE svg PUBLIC "-//W3C//DTD SVG 1.1//EN" "http://www.w3.org/Graphics/SVG/1.1/DTD/svg11.dtd">
<!-- Creator: CorelDRAW X7 -->
<svg xmlns="http://www.w3.org/2000/svg" xml:space="preserve" width="48.1287mm" height="7.6824mm" version="1.1" style="shape-rendering:geometricPrecision; text-rendering:geometricPrecision; image-rendering:optimizeQuality; fill-rule:evenodd; clip-rule:evenodd"
viewBox="0 0 5134 819"
 xmlns:xlink="http://www.w3.org/1999/xlink">
 <defs>
  <style type="text/css">
   <![CDATA[
    .fil1 {fill:black}
    .fil0 {fill:#00C19F}
    .fil2 {fill:black;fill-rule:nonzero}
   ]]>
  </style>
 </defs>
 <g id="Layer_x0020_1">
  <metadata id="CorelCorpID_0Corel-Layer"/>
  <path class="fil0" d="M377 2c-227,27 -374,196 -376,402 -1,87 0,175 0,262 0,39 -5,85 13,115 16,26 51,46 93,35 76,-19 61,-120 61,-200 0,-168 -35,-318 111,-411 119,-76 284,-36 353,93 40,76 18,146 25,234 6,82 109,105 152,44 22,-32 15,-69 15,-112 0,-42 1,-83 -5,-124 -21,-129 -110,-243 -225,-297 -60,-29 -140,-50 -217,-41z"/>
  <path class="fil0" d="M1149 195c-333,54 -277,596 103,535 338,-54 273,-596 -103,-535zm34 114c-181,24 -162,325 34,305 82,-8 134,-82 123,-173 -9,-76 -72,-144 -157,-132z"/>
  <path class="fil0" d="M2546 655l8 65 115 1 0 -519 -127 1c-1,89 3,180 -1,268 -6,183 -256,199 -259,4 -2,-91 1,-182 -1,-272l-128 -1c-1,83 0,167 0,249 0,142 51,282 219,280 39,0 72,-8 102,-24 43,-23 55,-42 72,-52z"/>
  <path class="fil0" d="M1727 723l134 1c10,-5 3,3 10,-11l21 -49c25,-59 191,-445 194,-464l-138 0c-13,22 -28,66 -39,94 -13,32 -27,62 -39,96l-73 197 -112 -290c-12,-30 -26,-69 -41,-97l-138 0 221 523z"/>
  <path class="fil0" d="M716 654c-106,30 -63,190 44,162 38,-10 72,-50 60,-101 -10,-40 -53,-75 -104,-61z"/>
  <path class="fil1" d="M3861 616l0 105 52 0 0 -521 -52 0 0 109c-10,-7 -37,-68 -116,-98 -167,-63 -359,42 -361,247 -3,267 310,356 451,188 6,-6 19,-26 26,-30zm-236 -372c-276,29 -243,466 52,435 116,-12 201,-110 187,-245 -13,-116 -106,-204 -239,-190z"/>
  <path class="fil1" d="M3307 650c-6,-12 -22,-28 -34,-35 -7,4 -23,21 -47,34 -62,34 -135,38 -199,12 -73,-29 -126,-99 -126,-200 -1,-195 192,-260 323,-192 24,12 31,22 49,35l34 -31c-21,-28 -80,-60 -128,-71 -155,-36 -330,58 -329,259 0,123 68,208 156,244 100,40 227,21 301,-55z"/>
  <path class="fil1" d="M4569 47l0 152 -110 1 -1 42 110 1c8,94 -8,296 5,371 9,56 36,92 82,106 56,18 113,6 158,-17l-16 -41c-51,10 -176,75 -177,-103 -1,-101 -5,-216 0,-315l177 -1 -1 -43 -176 0 0 -158 -51 5z"/>
  <path class="fil1" d="M4104 287l-2 -86 -48 -1 -1 521 52 0c0,-77 -10,-314 12,-368 18,-44 51,-78 95,-97 66,-28 107,-7 155,11l21 -41c-37,-33 -113,-38 -167,-25 -26,7 -52,19 -69,32 -9,7 -19,17 -26,25 -8,8 -14,21 -22,29z"/>
  <path class="fil2" d="M4919 215l23 0 0 -112 38 0 0 -20 -98 0 0 20 37 0 0 112zm192 -132l-43 79 -1 0 -43 -79 -23 0 0 132 23 0 0 -89 0 0 36 63 15 0 36 -63 0 0 0 89 23 0 0 -132 -23 0z"/>
 </g>
</svg>
